// Jest Snapshot v1, https://goo.gl/fbAQLP

exports[`Thumbnail _snapshot_ Thumbnail renders correctly 1`] = `
<li
  className="Thumbnail"
>
  <button
    type="button"
  >
    <img
      alt=""
      src="imageSrc"
    />
  </button>
</li>
`;
