// Jest Snapshot v1, https://goo.gl/fbAQLP

exports[`ProductImage _snapshot_ ProductImage renders correctly 1`] = `
<div
  className="ProductImage"
>
  <img
    alt=""
    src="imageSrc"
  />
</div>
`;
